<svg xmlns="http://www.w3.org/2000/svg" width="390" height="130" viewBox="0 0 300 100" class="{{ include.class }}">
  <g>
    <path d="M1,82.4A37.3,37.3,0,0,0,17,76c8.1-5.9,7.1-10.6,15-18s12.7-4.5,31-15c14.8-8.5,19.2-14.9,21-18,3.7-6.3,3.6-10.5,5-14s4.1-6.5,9.6-9.2" fill="none" stroke="#0065bd" stroke-miterlimit="10" stroke-width="4"/>
    <polyline points="85.3 1 85.3 13.3 54 44.5 39.5 44.5 22 62 1 62" fill="none" stroke="#6c757d" stroke-miterlimit="10" stroke-width="2"/>
    <rect x="62" y="60" width="10" height="10" fill="#e37222"/>
    <rect x="72" y="62" width="10" height="10" fill="#e37222"/>
    <rect x="75" y="72" width="10" height="10" fill="#e37222"/>
    <rect x="63" y="72" width="10" height="10" fill="#e37222"/>
    <rect x="26" y="39" width="10" height="10" transform="translate(40.2 -9) rotate(45)" fill="#e37222"/>
    <rect x="39" y="33" width="10" height="10" fill="#e37222"/>
    <rect x="51" y="28" width="10" height="10" transform="translate(39.7 -29.9) rotate(45)" fill="#e37222"/>
  </g>
  <g>
    <path d="M201,89.4A37.3,37.3,0,0,0,217,83c8.1-5.9,7.1-10.6,15-18s12.7-4.5,31-15c14.8-8.5,19.2-14.9,21-18,3.7-6.3,3.6-10.5,5-14A20,20,0,0,1,299,8" fill="none" stroke="#0065bd" stroke-miterlimit="10" stroke-width="4"/>
    <polyline points="285.3 1 285.3 13.3 254 44.5 239.5 44.5 222 62 201 62" fill="none" stroke="#6c757d" stroke-miterlimit="10" stroke-width="2"/>
    <rect x="261" y="59" width="10" height="10" fill="#e37222"/>
    <rect x="273" y="61" width="10" height="10" fill="#e37222"/>
    <rect x="276" y="73" width="10" height="10" fill="#e37222"/>
    <rect x="262" y="73" width="10" height="10" fill="#e37222"/>
    <rect x="222" y="38" width="10" height="10" transform="translate(96.9 -147.9) rotate(45)" fill="#e37222"/>
    <rect x="240" y="30" width="10" height="10" fill="#e37222"/>
    <rect x="255" y="21" width="10" height="10" transform="translate(94.5 -176.2) rotate(45)" fill="#e37222"/>
  </g>
  <g>
    <rect x="1" y="1" width="98" height="98" rx="2" ry="2" fill="none" stroke="#343a40" stroke-miterlimit="10" stroke-width="2"/>
    <rect x="201" y="1" width="98" height="98" rx="2" ry="2" fill="none" stroke="#343a40" stroke-miterlimit="10" stroke-width="2"/>
    <g>
      <line x1="125" y1="50" x2="169.6" y2="50" fill="none" stroke="#343a40" stroke-miterlimit="10" stroke-width="5"/>
      <polygon points="153 70.4 149.6 66.8 167.7 50 149.6 33.2 153 29.6 175 50 153 70.4" fill="#343a40"/>
    </g>
  </g>
</svg>
